…
data <- mtpview::mtp_example3
data
#> # A tibble: 9,024 x 6
#>    well  strain drug        dose_um runtime measure
#>    <chr> <chr>  <chr>         <dbl>   <dbl>   <dbl>
#>  1 A01   wt     6772625 (2)       0     926   0.111
#>  2 A01   wt     6772625 (2)       0    1802   0.110
#>  3 A01   wt     6772625 (2)       0    2678   0.119
#>  4 A01   wt     6772625 (2)       0    3552   0.124
#>  5 A01   wt     6772625 (2)       0    4427   0.111
#>  6 A01   wt     6772625 (2)       0    5301   0.124
#>  7 A01   wt     6772625 (2)       0    6176   0.115
#>  8 A01   wt     6772625 (2)       0    7050   0.114
#>  9 A01   wt     6772625 (2)       0    7924   0.124
#> 10 A01   wt     6772625 (2)       0    8799   0.126
#> # … with 9,014 more rows
data %>% 
  group_by(well) %>% 
  mutate(measure_pp = preprocess(measure))
#> # A tibble: 9,024 x 7
#> # Groups:   well [96]
#>    well  strain drug        dose_um runtime measure measure_pp
#>    <chr> <chr>  <chr>         <dbl>   <dbl>   <dbl>      <dbl>
#>  1 A01   wt     6772625 (2)       0     926   0.111     0     
#>  2 A01   wt     6772625 (2)       0    1802   0.110     0.0139
#>  3 A01   wt     6772625 (2)       0    2678   0.119     0.0353
#>  4 A01   wt     6772625 (2)       0    3552   0.124     0.0422
#>  5 A01   wt     6772625 (2)       0    4427   0.111     0.0491
#>  6 A01   wt     6772625 (2)       0    5301   0.124     0.0491
#>  7 A01   wt     6772625 (2)       0    6176   0.115     0.0503
#>  8 A01   wt     6772625 (2)       0    7050   0.114     0.0511
#>  9 A01   wt     6772625 (2)       0    7924   0.124     0.0557
#> 10 A01   wt     6772625 (2)       0    8799   0.126     0.0604
#> # … with 9,014 more rows
```
…
#### Grouping

`add_groupings()` takes one or more strings with grouping shorthand,
expands them and joins them onto the provided data. The `source
well(s)`-\>`target well(s)`. Sets of wells are specified with the
familiar rectanuglar colon style notation: `A01:A12` is expanded to
contain row A wells from column 1 to column 12 inclusive.

``` r
well_summaries %>% 
  add_groupings(c("A01->A02:A12", "B01:H01->B02:H12"), nrow = 8, ncol = 12)
#> # A tibble: 96 x 6
#>    well      A        mu lambda group        is_ref
#>    <chr> <dbl>     <dbl>  <dbl> <chr>        <lgl> 
#>  1 A01    2.13 0.0000764 15652. A01->A02:A12 TRUE  
#>  2 A02    2.36 0.0000817 14799. A01->A02:A12 FALSE 
#>  3 A03    2.34 0.0000783 14045. A01->A02:A12 FALSE 
#>  4 A04    1.97 0.0000616 19335. A01->A02:A12 FALSE 
#>  5 A05    1.96 0.0000671 20799. A01->A02:A12 FALSE 
#>  6 A06    1.89 0.0000633 21611. A01->A02:A12 FALSE 
#>  7 A07    2.33 0.0000837  1057. A01->A02:A12 FALSE 
#>  8 A08    2.32 0.0000830 15236. A01->A02:A12 FALSE 
#>  9 A09    2.35 0.000100    926  A01->A02:A12 FALSE 
#> 10 A10    2.34 0.0000906  3155. A01->A02:A12 FALSE 
#> # … with 86 more rows
```
…
#### Relatively

Rescale you data by group, for example:

``` r
well_summaries %>% 
  add_groupings(c("A01->A02:A12", "B01:H01->B02:H12"), nrow = 8, ncol = 12) %>% 
  group_by(group) %>% 
  mutate(relative_mu = relatively(mu, is_ref)) 
#> # A tibble: 96 x 7
#> # Groups:   group [2]
#>    well      A        mu lambda group        is_ref relative_mu
#>    <chr> <dbl>     <dbl>  <dbl> <chr>        <lgl>        <dbl>
#>  1 A01    2.13 0.0000764 15652. A01->A02:A12 TRUE         1    
#>  2 A02    2.36 0.0000817 14799. A01->A02:A12 FALSE        1.07 
#>  3 A03    2.34 0.0000783 14045. A01->A02:A12 FALSE        1.02 
#>  4 A04    1.97 0.0000616 19335. A01->A02:A12 FALSE        0.805
#>  5 A05    1.96 0.0000671 20799. A01->A02:A12 FALSE        0.878
#>  6 A06    1.89 0.0000633 21611. A01->A02:A12 FALSE        0.827
#>  7 A07    2.33 0.0000837  1057. A01->A02:A12 FALSE        1.09 
#>  8 A08    2.32 0.0000830 15236. A01->A02:A12 FALSE        1.09 
#>  9 A09    2.35 0.000100    926  A01->A02:A12 FALSE        1.31 
#> 10 A10    2.34 0.0000906  3155. A01->A02:A12 FALSE        1.19 
#> # … with 86 more rows
```
…
